<?xml version="1.0" encoding="iso-8859-1"?>
<!-- Generator: Adobe Illustrator 22.0.1, SVG Export Plug-In . SVG Version: 6.00 Build 0)  -->
<svg version="1.1" id="Capa_1" xmlns="http://www.w3.org/2000/svg" xmlns:xlink="http://www.w3.org/1999/xlink" x="0px" y="0px"
	 viewBox="0 0 1216.003 237.712" style="enable-background:new 0 0 1216.003 237.712;" xml:space="preserve">
<path style="fill:#E31214;" d="M205.798,0H195.64c-3.062,0-6.339,0-9.831,0c-3.718,0-5.684,0-5.899,0c-0.655,0-2.734,0-6.226,0
	c-3.277,0-6.339,0-9.176,0h-11.47c-5.243,0-7.865,1.129-7.865,3.377c0,2.026,3.932,3.039,11.797,3.039
	c8.956,0,14.199,0.396,15.73,1.182c1.526,0.791,2.402,1.915,2.622,3.377c0.215,1.467,0.328,5.688,0.328,12.662v150.248L62.592,0
	c-6.774,0.675-13.764,1.013-20.973,1.013C36.155,1.24,33.098,1.35,32.443,1.35c-0.44,0-4.045-0.222-10.814-0.675
	C14.854,0.227,9.283,0,4.916,0C1.639,0,0,1.066,0,3.197c0,2.374,2.837,3.556,8.52,3.556c8.955,0,15.182,1.129,18.679,3.382
	c7.425,4.738,11.142,16.461,11.142,35.169v166.714c0,8.114-1.039,12.905-3.113,14.372c-2.079,1.467-9.56,2.311-22.448,2.533
	c-4.373,0-6.554,1.018-6.554,3.044c0,2.031,2.509,3.044,7.537,3.044h3.277c8.3,0,14.47-0.227,18.515-0.675
	c4.04-0.448,5.95-0.675,5.735-0.675c3.277,0,6.662,0.116,10.159,0.338c10.486,0.675,16.713,1.013,18.679,1.013
	c5.678,0,8.52-1.124,8.52-3.377c0-1.799-1.439-2.701-4.306-2.701c-11.7-0.222-19.094-0.728-22.187-1.52
	c-3.093-0.786-4.747-2.643-4.967-5.577V33.344c34.773,54.933,64.297,100.749,88.578,137.443l41.874,63.195
	c1.741,2.485,3.262,3.73,4.573,3.73c1.086,0,1.736-1.013,1.956-3.033c0.215-2.021,0.328-8.99,0.328-20.903V19.563
	c0-6.289,0.328-10.056,0.983-11.29c0.656-1.235,2.729-1.857,6.226-1.857h5.899h7.209c5.458,0.227,8.193-0.786,8.193-3.039
	C213.008,1.129,210.601,0,205.798,0L205.798,0z"/>
<path style="fill:#E31214;" d="M268.685,231.431c-6.743-0.253-10.803-1.078-12.176-2.479c-0.625-0.634-0.937-4.576-0.937-11.822
	V115.308c0-4.32,0.347-6.989,1.044-8.008c0.694-1.016,2.623-1.588,5.786-1.716c5.563-0.238,8.345-0.84,8.345-1.806
	c0-1.084-1.001-1.627-2.996-1.627l-7.113,0.191c-5.367-0.125-8.987-0.191-10.858-0.191h-25.272c-1.498,0-2.247,0.506-2.247,1.513
	c0,0.786,1.186,1.237,3.56,1.347c6.121,0.256,9.556,1.019,10.308,2.294c0.625,0.766,0.937,4.272,0.937,10.52v100.601
	c0,6.251-0.434,9.915-1.295,10.999c-0.865,1.085-3.765,1.689-8.698,1.814c-3.21,0.128-4.812,0.7-4.812,1.716
	c0,1.144,0.804,1.716,2.414,1.716c3.343,0,5.821-0.063,7.431-0.191c3.094-0.253,6.191-0.381,9.287-0.381
	c16.1,0,24.52,0.191,25.266,0.572h1.856c1.486,0,2.23-0.539,2.23-1.621C270.746,231.974,270.058,231.431,268.685,231.431
	L268.685,231.431z"/>
<path style="fill:#E31214;" d="M398.805,192.914c-0.37,0-1.05,0-2.036,0c-0.989,0-1.914,0-2.776,0h-14.804
	c-10.858,0.128-17.644,0.128-20.356,0h-3.331c-2.715,0-4.071,0.626-4.071,1.877c0,0.569,0.246,0.939,0.74,1.109
	c0.492,0.173,1.602,0.256,3.331,0.256c6.908-0.125,10.947,0.384,12.121,1.534c1.171,1.15,1.758,4.919,1.758,11.307
	c0,7.666-0.925,12.969-2.776,15.907c-3.701,5.878-10.488,8.816-20.356,8.816c-12.954,0-23.225-5.768-30.812-17.307
	c-7.587-11.536-11.381-27.187-11.381-46.949c0-20.396,3.73-36.494,11.196-48.286c7.463-11.792,17.609-17.691,30.442-17.691
	c10.239,0,18.506,3.545,24.798,10.63c6.292,7.088,9.744,16.762,10.363,29.019c0.121,1.788,0.74,2.682,1.851,2.682
	c1.11,0,1.787-0.635,2.036-1.907c0.246-1.269,0.307-4.511,0.185-9.725v-10.297c-0.124-3.558,0.2-9.087,0.971-16.589
	c0.214-2.288,0.324-3.495,0.324-3.623c0-1.144-0.495-1.716-1.48-1.716c-0.865,0-1.605,0.891-2.221,2.67
	c-0.74,3.051-2.284,4.576-4.627,4.576c-1.85,0-4.195-0.697-7.032-2.098c-9.501-4.576-18.26-6.865-26.278-6.865
	c-18.384,0-33.189,6.421-44.414,19.259c-11.228,12.841-16.84,29.683-16.84,50.53c0,20.593,5.737,36.896,17.21,48.909
	c11.474,12.013,26.955,18.019,46.449,18.019c8.142,0,15.111-1.141,20.911-3.415c5.798-2.276,11.904-6.2,18.321-11.768v-6.075
	c0-9.614,0.246-15.117,0.74-16.512c0.74-2.023,4.441-3.036,11.103-3.036c2.961,0,4.441-0.48,4.441-1.442
	C402.506,193.516,401.271,192.914,398.805,192.914L398.805,192.914z"/>
<path style="fill:#E31214;" d="M521.904,231.431c-5.847,0-9.38-0.697-10.597-2.097c-0.61-1.016-0.914-4.576-0.914-10.678V117.215
	c0-4.958,0.153-7.943,0.463-8.962c0.306-1.016,1.079-1.716,2.313-2.098c0.74-0.253,1.911-0.381,3.516-0.381
	c5.427-0.125,8.142-0.763,8.142-1.907c0-1.144-1.295-1.716-3.886-1.716c-0.74,0-2.438,0-5.089,0c-2.654,0-7.743,0-15.267,0
	c-2.221,0-5.552,0-9.993,0c-4.32,0-7.342,0-9.068,0h-0.925c-2.099,0-3.146,0.575-3.146,1.722c0,1.15,0.925,1.722,2.776,1.722
	c5.922-0.125,9.374,0.417,10.363,1.627c0.986,1.213,1.48,5.199,1.48,11.956v41.13H436.37V116.31c0-5.101,0.399-8.131,1.203-9.087
	c0.801-0.956,3.207-1.436,7.217-1.436c4.008,0,6.014-0.572,6.014-1.722c0-1.275-1.11-1.913-3.331-1.913
	c-1.359,0-2.469,0.095-3.331,0.286c-2.469,0.191-6.847,0.286-13.139,0.286c-11.473,0-18.754-0.125-21.837-0.381
	c-1.605-0.125-2.654-0.191-3.146-0.191c-1.605,0-2.406,0.536-2.406,1.606c0,0.938,0.338,1.475,1.018,1.606
	c0.677,0.134,2.929,0.334,6.755,0.602c3.331,0.128,5.274,0.7,5.829,1.713c0.555,1.016,0.833,4.38,0.833,10.091v100.529
	c0,6.474-0.185,10.028-0.555,10.663c-0.74,1.016-2.469,1.651-5.182,1.904c-1.729,0.128-3.395,0.256-4.997,0.381
	c-2.469,0.256-3.701,0.891-3.701,1.904c0,1.016,1.232,1.523,3.701,1.523c6.908,0,12.089,0,15.545,0c3.452,0,6.043,0,7.772,0
	c0.616,0,2.559,0,5.829,0c3.267,0,6.384,0,9.345,0h1.665c2.466,0,3.701-0.572,3.701-1.716c0-0.888-1.605-1.46-4.811-1.716
	c-4.936-0.381-7.836-1.079-8.698-2.098c-0.865-1.016-1.295-4.385-1.295-10.106v-53.962h55.702v55.526
	c0,5.071-0.246,8.02-0.731,8.842c-0.489,0.825-2.255,1.365-5.3,1.615c-5.725,0.381-8.588,1.079-8.588,2.091
	c0,1.016,1.223,1.523,3.672,1.523c1.591,0,4.04,0,7.345,0c3.305,0,5.815,0,7.53,0h25.338c2.325,0,3.49-0.572,3.49-1.716
	C524.827,231.688,523.853,231.178,521.904,231.431L521.904,231.431z"/>
<path style="fill:#E31214;" d="M635.674,135.234c-0.124-0.572-0.185-1.049-0.185-1.43c-1.359-13.982-2.16-24.532-2.406-31.652
	l-30.719,0.572c-9.377,0.128-16.285,0.128-20.726,0l-37.752-0.572h-8.328c-0.74,9.534-1.295,17.227-1.665,23.072l-0.37,4.386
	c-0.124,1.4-0.185,2.798-0.185,4.195c0,2.67,0.74,4.004,2.221,4.004c1.356,0,2.221-1.907,2.591-5.72
	c1.356-12.71,5.922-20.528,13.694-23.453c2.961-1.144,10.548-1.778,22.762-1.907v114.386c0,4.201-0.309,6.811-0.925,7.83
	c-1.11,1.656-3.58,2.482-7.402,2.482c-5.306,0.128-7.958,0.766-7.958,1.91c0,1.019,1.417,1.528,4.256,1.528
	c5.552,0,10.115-0.096,13.694-0.286c3.577-0.191,7.402-0.286,11.474-0.286c3.082,0,8.328,0.128,15.73,0.381
	c0.74,0.125,1.602,0.191,2.591,0.191c1.972,0,2.961-0.539,2.961-1.621c0-0.959-0.74-1.502-2.221-1.621
	c-5.676-0.125-9.131-0.509-10.363-1.147c-2.345-1.144-3.516-4.007-3.516-8.592V106.728c1.232-0.083,4.748-0.211,10.548-0.381
	c2.342-0.125,5.427,0.191,9.253,0.953c5.922,1.144,10.178,3.814,12.769,8.008c1.972,3.179,3.392,7.055,4.256,11.632
	c0.246,2.288,0.491,4.576,0.74,6.864c0.616,3.307,1.666,4.958,3.146,4.958c1.48,0,2.22-0.825,2.22-2.479
	C635.859,136.158,635.796,135.807,635.674,135.234z"/>
<path style="fill:#E31214;" d="M773.169,129.419c-0.619-4.195-1.11-8.962-1.48-14.301c-0.619-7.88-0.989-12.647-1.11-14.301
	c-4.69,0.763-17.459,1.144-38.307,1.144c-7.773,0-17.737,0-29.887,0c-12.153,0-18.107,0-17.858,0h-2.961
	c-2.221,0-3.331,0.575-3.331,1.725c0,1.266,0.998,1.898,2.999,1.898c5.248,0.128,8.466,0.48,9.652,1.052
	c1.185,0.575,1.842,2.008,1.969,4.302v109.774c0,4.973-0.37,7.937-1.11,8.893c-0.74,0.956-3.239,1.561-7.495,1.817
	c-4.257,0.256-6.385,0.891-6.385,1.91c0,1.022,1.171,1.531,3.516,1.531h27.573c0.986,0,2.897,0,5.737,0c2.961,0,5.303,0,7.032,0
	h1.851c2.466,0,3.701-0.572,3.701-1.716c0-1.016-0.977-1.526-2.926-1.526c-4.638,0.128-7.625-0.063-8.967-0.572
	c-2.805-1.016-4.207-3.367-4.207-7.055v-37.373v-19.449c3.438-0.253,7.428-0.381,11.974-0.381c8.594,0,14.336,0.953,17.222,2.86
	c2.886,1.907,4.82,6.739,5.803,14.491c0.613,5.086,1.041,8.009,1.287,8.771c0.246,0.763,0.862,1.144,1.845,1.144
	c1.226,0,1.842-0.763,1.842-2.288c0-1.016-0.049-1.779-0.148-2.288c-0.396-5.592-0.593-13.219-0.593-22.882
	c0-7.499,0.185-15.635,0.555-24.407c0.121-0.763,0.185-1.716,0.185-2.86c0-1.907-0.619-2.86-1.851-2.86
	c-1.235,0-1.975,1.463-2.221,4.386c-0.74,10.297-2.961,16.559-6.662,18.782c-3.701,2.226-13.448,3.274-29.239,3.146v-56.056
	c7.894-0.381,14.68-0.575,20.356-0.575c7.648,0,12.584,0.131,14.805,0.387c6.167,0.643,10.733,2.318,13.694,5.02
	c4.563,4.248,7.587,11.006,9.068,20.275c0.491,3.218,1.356,4.826,2.591,4.826c1.232,0,1.85-0.888,1.85-2.67
	C773.539,132.726,773.415,131.2,773.169,129.419L773.169,129.419z"/>
<path style="fill:#E31214;" d="M875.69,199.97c-1.359,0-2.16,1.57-2.406,4.708c-1.11,14.188-5.737,22.223-13.879,24.106
	c-4.69,1.132-20.605,1.695-47.745,1.695v-63.877h8.29c9.331,0,15.102,0.382,17.314,1.144c5.034,1.782,8.044,6.421,9.027,13.919
	c0.734,5.977,1.258,9.504,1.564,10.583c0.307,1.082,0.888,1.621,1.75,1.621c1.35,0,2.027-0.825,2.027-2.479
	c0-0.888-0.049-1.969-0.147-3.242c-0.396-5.083-0.593-14.426-0.593-28.03c0-2.288,0.121-5.655,0.37-10.106
	c0.246-4.448,0.37-7.818,0.37-10.106c0-2.288-0.68-3.432-2.036-3.432c-1.11,0-1.79,1.335-2.036,4.004
	c-1.11,10.425-3.178,16.717-6.199,18.877c-3.025,2.163-11.445,3.241-25.26,3.241h-4.441v-56.059h15.175
	c16.777,0,27.14,1.153,31.09,3.453c5.303,3.072,9.128,10.365,11.474,21.877c0.616,3.2,1.602,4.797,2.961,4.797
	c1.11,0,1.665-0.635,1.665-1.907c0-1.016-0.063-1.841-0.185-2.479l-0.74-8.199c-0.864-9.659-1.42-17.223-1.665-22.691
	c-3.085,0.509-6.477,0.763-10.178,0.763c-4.441,0-13.078,0-25.908,0c-12.833,0-19.801,0-20.911,0h-31.645
	c-2.715,0-4.071,0.542-4.071,1.621c0,1.082,0.986,1.621,2.961,1.621c5.673,0,9.036,0.352,10.085,1.052
	c1.047,0.703,1.573,2.902,1.573,6.599V220.53c0,4.844-0.341,7.842-1.018,8.989c-0.68,1.15-2.623,1.85-5.829,2.103
	c-4.32,0.343-6.662,0.512-7.032,0.512c-0.74,0.113-1.11,0.512-1.11,1.195c0,1.025,1.171,1.535,3.516,1.535h1.851
	c1.48,0,4.317,0,8.513,0c4.193,0,8.449,0,12.769,0c35.777,0,59.71,0.381,71.802,1.144v-6.292c0-5.211,0.121-10.678,0.37-16.398
	c0.246-5.721,0.37-8.834,0.37-9.343C877.541,201.304,876.922,199.97,875.69,199.97L875.69,199.97z"/>
<path style="fill:#E31214;" d="M998.935,101.771l-12.214,0.572H980.8c-1.605,0-4.135-0.191-7.587-0.572c-3.455,0-5.552,0-6.292,0
	c-3.701,0-5.552,0.706-5.552,2.118c0,1.132,0.74,1.695,2.224,1.695h5.745c6.055-0.253,9.082,1.085,9.082,4.013
	c0,3.057-10.219,34.304-30.65,93.745c-5.552-16.827-9.317-28.238-11.289-34.233c-11.823-34.796-17.858-52.701-18.107-53.718
	l-1.284-5.205c-0.214-0.799-0.321-1.332-0.321-1.6c0-1.6,1.295-2.467,3.886-2.604l11.289-0.399c4.441-0.113,6.662-0.807,6.662-2.08
	c0-1.156-1.11-1.734-3.331-1.734h-2.591c-7.651,0-13.541,0.095-17.673,0.286c-4.135,0.191-6.509,0.286-7.125,0.286
	c-2.345,0-6.263-0.095-11.751-0.286c-5.491-0.19-9.346-0.286-11.566-0.286h-1.666c-2.467,0-3.701,0.572-3.701,1.716
	c0,0.891,0.402,1.4,1.203,1.525c0.804,0.128,3.239,0.256,7.31,0.381c3.453,0.128,5.919,0.795,7.4,2.002
	c1.48,1.21,2.836,3.593,4.071,7.15l9.016,25.694c6.48,19.217,11.372,33.661,14.674,43.331c3.083,8.771,7.402,21.866,12.954,39.28
	c3.082,9.534,5.118,14.301,6.107,14.301c0.862,0,1.48-0.763,1.85-2.288c6.167-22.947,16.84-55.902,32.015-98.864l6.292-17.784
	c1.972-5.607,3.886-9.176,5.737-10.708c1.851-1.532,5.488-2.359,10.918-2.488c2.342-0.125,3.516-0.7,3.516-1.722
	C1002.266,102.28,1001.156,101.771,998.935,101.771L998.935,101.771z"/>
<path style="fill:#E31214;" d="M1100.531,199.97c-1.359,0-2.16,1.57-2.406,4.708c-1.11,14.188-5.737,22.223-13.879,24.106
	c-4.69,1.132-20.605,1.695-47.745,1.695v-63.877h8.29c9.331,0,15.102,0.382,17.314,1.144c5.034,1.782,8.044,6.421,9.027,13.919
	c0.734,5.977,1.258,9.504,1.564,10.583c0.307,1.082,0.888,1.621,1.749,1.621c1.35,0,2.027-0.825,2.027-2.479
	c0-0.888-0.049-1.969-0.147-3.242c-0.396-5.083-0.593-14.426-0.593-28.03c0-2.288,0.121-5.655,0.37-10.106
	c0.246-4.448,0.37-7.818,0.37-10.106c0-2.288-0.68-3.432-2.036-3.432c-1.11,0-1.79,1.335-2.036,4.004
	c-1.11,10.425-3.178,16.717-6.199,18.877c-3.025,2.163-11.444,3.241-25.26,3.241h-4.441v-56.059h15.175
	c16.776,0,27.14,1.153,31.089,3.453c5.303,3.072,9.128,10.365,11.474,21.877c0.616,3.2,1.602,4.797,2.961,4.797
	c1.11,0,1.665-0.635,1.665-1.907c0-1.016-0.063-1.841-0.185-2.479l-0.74-8.199c-0.864-9.659-1.42-17.223-1.665-22.691
	c-3.085,0.509-6.477,0.763-10.178,0.763c-4.442,0-13.078,0-25.908,0c-12.833,0-19.801,0-20.912,0h-31.645
	c-2.715,0-4.071,0.542-4.071,1.621c0,1.082,0.986,1.621,2.961,1.621c5.673,0,9.036,0.352,10.086,1.052
	c1.047,0.703,1.573,2.902,1.573,6.599V220.53c0,4.844-0.341,7.842-1.018,8.989c-0.68,1.15-2.623,1.85-5.829,2.103
	c-4.32,0.343-6.662,0.512-7.032,0.512c-0.74,0.113-1.11,0.512-1.11,1.195c0,1.025,1.171,1.535,3.516,1.535h1.851
	c1.481,0,4.317,0,8.513,0c4.193,0,8.449,0,12.769,0c35.777,0,59.71,0.381,71.802,1.144v-6.292c0-5.211,0.121-10.678,0.37-16.398
	c0.246-5.721,0.37-8.834,0.37-9.343C1102.381,201.304,1101.762,199.97,1100.531,199.97L1100.531,199.97z"/>
<path style="fill:#E31214;" d="M1211.562,224.186c-2.715,0-4.072,1.335-4.072,4.005c0,0.891,0.307,2.035,0.925,3.432
	c0.121,0.128,0.185,0.256,0.185,0.381c0,0.763-0.925,1.144-2.776,1.144c-5.922,0-9.377-5.226-10.363-15.678
	c-1.605-18.484-4.843-31.262-9.715-38.338c-4.875-7.073-13.787-11.76-26.741-14.053c-1.235,0-1.851-0.253-1.851-0.763
	c0.121-0.256,0.74-0.447,1.851-0.575c11.844-1.016,21.218-4.415,28.129-10.201c6.908-5.783,10.363-13.124,10.363-22.023
	c0-9.024-3.363-16.175-10.086-21.451c-6.725-5.273-15.822-7.913-27.296-7.913c-1.975,0-5.43,0.17-10.363,0.509
	c-4.441,0.17-7.897,0.253-10.363,0.253l-24.612-0.572c-0.74-0.125-1.296-0.191-1.666-0.191c-1.975,0-2.961,0.638-2.961,1.907
	c0,1.144,1.541,1.716,4.626,1.716c5.303,0.128,8.481,0.7,9.53,1.716c1.047,1.019,1.573,4.07,1.573,9.152v105.254
	c0,4.323-0.249,6.802-0.74,7.436c-0.495,1.4-3.64,2.163-9.438,2.288c-3.58,0.128-5.367,0.638-5.367,1.526
	c0,1.144,1.356,1.716,4.071,1.716h7.217c1.356,0,4.193,0,8.512,0c4.442,0,7.587,0,9.438,0c9.623,0,14.99,0,16.1,0h2.221
	c2.096,0,3.146-0.572,3.146-1.716c0-1.016-0.804-1.526-2.406-1.526c-4.566-0.125-7.402-0.253-8.513-0.381
	c-3.95-0.635-5.922-2.223-5.922-4.767V166.41c9.744,0.256,16.776,2.068,21.096,5.434c4.317,3.369,6.847,9.123,7.587,17.256
	c1.356,13.476,2.374,21.865,3.053,25.17c0.677,3.307,2.189,6.739,4.534,10.296c5.427,8.265,12.954,12.394,22.577,12.394
	c8.634,0,12.954-2.67,12.954-8.009C1216.003,225.777,1214.523,224.186,1211.562,224.186L1211.562,224.186z M1169.832,155.732
	c-5.245,4.576-13.787,6.802-25.63,6.674v-48.432c0-2.923,0.74-4.958,2.221-6.102c1.48-1.144,4.256-1.716,8.328-1.716
	c15.296,0,22.947,9.09,22.947,27.267C1177.696,143.72,1175.074,151.156,1169.832,155.732z"/>
</svg>
